Provider ID,Provider Name,Distribution Cap,Last Updated
9bNgy2mOw3Mt1Bju6yxrI0ZZJzfF,CNN Money,10.00%,12/07/2019 06:39 PM,
ApY8NwllKgKvgnfMrPy3xiOg1fYV,CNN Travel,20.00%,12/07/2019 06:39 PM,
1GrDbnR7uaPUUUZGKAP3VkXfyeaN,ESPN,20.00%,12/07/2019 06:39 PM,
9WpwBoZnwfpforruZ3OQrSmPQ0Ao,Foody TV,10.00%,12/07/2019 06:39 PM,
42xl5S42mnOo9vDQXtW6E6zGt5O3,Hallmark Channel,20.00%,12/07/2019 06:39 PM,
1PKcsiAu0WbqtX3AfIHGonOvQBEu,NBC News,20.00%,12/07/2019 06:39 PM,
